<?xml version="1.0" encoding="UTF-8" standalone="no"?>
<!-- Created with Inkscape (http://www.inkscape.org/) -->

<svg
   xmlns:dc="http://purl.org/dc/elements/1.1/"
   xmlns:cc="http://creativecommons.org/ns#"
   xmlns:rdf="http://www.w3.org/1999/02/22-rdf-syntax-ns#"
   xmlns:svg="http://www.w3.org/2000/svg"
   xmlns="http://www.w3.org/2000/svg"
   xmlns:sodipodi="http://sodipodi.sourceforge.net/DTD/sodipodi-0.dtd"
   xmlns:inkscape="http://www.inkscape.org/namespaces/inkscape"
   width="920"
   height="480"
   id="svg2"
   version="1.1"
   inkscape:version="0.48.2 r9819"
   sodipodi:docname="Kindle vector.svg">
  <defs
     id="defs4">
    <marker
       inkscape:stockid="Arrow2Send"
       orient="auto"
       refY="0"
       refX="0"
       id="Arrow2Send"
       style="overflow:visible">
      <path
         id="path4313"
         style="font-size:12px;fill-rule:evenodd;stroke-width:0.625;stroke-linejoin:round"
         d="M 8.7185878,4.0337352 -2.2072895,0.01601326 8.7185884,-4.0017078 c -1.7454984,2.3720609 -1.7354408,5.6174519 -6e-7,8.035443 z"
         transform="matrix(-0.3,0,0,-0.3,0.69,0)"
         inkscape:connector-curvature="0" />
    </marker>
    <marker
       inkscape:stockid="Arrow2Mend"
       orient="auto"
       refY="0"
       refX="0"
       id="Arrow2Mend"
       style="overflow:visible">
      <path
         id="path4307"
         style="font-size:12px;fill-rule:evenodd;stroke-width:0.625;stroke-linejoin:round"
         d="M 8.7185878,4.0337352 -2.2072895,0.01601326 8.7185884,-4.0017078 c -1.7454984,2.3720609 -1.7354408,5.6174519 -6e-7,8.035443 z"
         transform="scale(-0.6,-0.6)"
         inkscape:connector-curvature="0" />
    </marker>
    <marker
       inkscape:stockid="Arrow2Lend"
       orient="auto"
       refY="0"
       refX="0"
       id="Arrow2Lend"
       style="overflow:visible">
      <path
         id="path4301"
         style="font-size:12px;fill-rule:evenodd;stroke-width:0.625;stroke-linejoin:round"
         d="M 8.7185878,4.0337352 -2.2072895,0.01601326 8.7185884,-4.0017078 c -1.7454984,2.3720609 -1.7354408,5.6174519 -6e-7,8.035443 z"
         transform="matrix(-1.1,0,0,-1.1,-1.1,0)"
         inkscape:connector-curvature="0" />
    </marker>
    <marker
       inkscape:stockid="Arrow1Lend"
       orient="auto"
       refY="0"
       refX="0"
       id="Arrow1Lend"
       style="overflow:visible">
      <path
         id="path4283"
         d="M 0,0 5,-5 -12.5,0 5,5 0,0 z"
         style="fill-rule:evenodd;stroke:#000000;stroke-width:1pt;marker-start:none"
         transform="matrix(-0.8,0,0,-0.8,-10,0)"
         inkscape:connector-curvature="0" />
    </marker>
  </defs>
  <sodipodi:namedview
     id="base"
     pagecolor="#ffffff"
     bordercolor="#666666"
     borderopacity="1.0"
     inkscape:pageopacity="0.0"
     inkscape:pageshadow="2"
     inkscape:zoom="0.76095916"
     inkscape:cx="428.62869"
     inkscape:cy="233.2191"
     inkscape:document-units="px"
     inkscape:current-layer="layer4"
     showgrid="false"
     showguides="false"
     inkscape:guide-bbox="true"
     inkscape:window-width="1255"
     inkscape:window-height="726"
     inkscape:window-x="9"
     inkscape:window-y="12"
     inkscape:window-maximized="0">
    <sodipodi:guide
       orientation="1,0"
       position="106.06602,919.23882"
       id="guide3786" />
    <sodipodi:guide
       orientation="1,0"
       position="353,669"
       id="guide3800" />
    <sodipodi:guide
       orientation="0,1"
       position="-201.85185,551.06383"
       id="guide3804" />
    <sodipodi:guide
       orientation="0,1"
       position="62.533062,512.17556"
       id="guide3806" />
    <sodipodi:guide
       orientation="1,0"
       position="245,661"
       id="guide3808" />
    <sodipodi:guide
       orientation="1,0"
       position="302,596.79812"
       id="guide3810" />
    <sodipodi:guide
       orientation="1,0"
       position="190,527"
       id="guide3812" />
    <sodipodi:guide
       orientation="1,0"
       position="161,549"
       id="guide3814" />
    <sodipodi:guide
       orientation="1,0"
       position="218,596.79812"
       id="guide3816" />
    <sodipodi:guide
       orientation="1,0"
       position="272,621"
       id="guide3818" />
    <sodipodi:guide
       orientation="1,0"
       position="326.59574,551.06383"
       id="guide3820" />
    <sodipodi:guide
       orientation="1,0"
       position="145.74468,538.82979"
       id="guide3851" />
    <sodipodi:guide
       orientation="1,0"
       position="340.42553,574"
       id="guide3853" />
    <inkscape:grid
       type="xygrid"
       id="grid3875"
       empspacing="5"
       visible="true"
       enabled="true"
       snapvisiblegridlinesonly="true" />
  </sodipodi:namedview>
  <metadata
     id="metadata7">
    <rdf:RDF>
      <cc:Work
         rdf:about="">
        <dc:format>image/svg+xml</dc:format>
        <dc:type
           rdf:resource="http://purl.org/dc/dcmitype/StillImage" />
        <dc:title></dc:title>
      </cc:Work>
    </rdf:RDF>
  </metadata>
  <g
     inkscape:groupmode="layer"
     id="layer2"
     inkscape:label="Kindle"
     style="display:inline"
     transform="translate(0,-572.36218)" />
  <g
     inkscape:groupmode="layer"
     id="layer4"
     inkscape:label="&quot;K&quot;"
     transform="translate(0,-572.36218)">
    <g
       id="g4263"
       transform="translate(-3.4573338,479.72472)">
      <g
         transform="matrix(0.95210881,-0.30575942,0.30575942,0.95210881,-91.033893,73.521126)"
         id="g4238">
        <path
           style="fill:#666666;stroke:none;display:inline"
           d="m 84.210648,137.53356 c -16.62,0 -30,13.38 -30,30 l 0,319.65626 c 0,16.62 13.38,30 30,30 l 209.937502,0 c 16.62,0 30,-13.38 30,-30 l 0,-319.65626 c 0,-16.62 -13.38,-30 -30,-30 l -209.937502,0 z m 47.093752,26.28125 117.65625,0 c 28.46807,0 51.375,23.9969 51.375,53.78126 l 0,148.4375 c 0,29.78436 -22.90693,53.75 -51.375,53.75 l -117.65625,0 c -28.46807,0 -51.406252,-23.96564 -51.406252,-53.75 l 0,-148.4375 c 0,-29.78436 22.938182,-53.78126 51.406252,-53.78126 z M 94.179398,436.78357 c 3.52522,0 6.375002,2.88103 6.375002,6.40625 0,3.52522 -2.849782,6.375 -6.375002,6.375 -3.52523,0 -6.40625,-2.84978 -6.40625,-6.375 0,-3.52522 2.88102,-6.40625 6.40625,-6.40625 z m 27.750002,0 c 3.52522,0 6.375,2.88103 6.375,6.40625 0,3.52522 -2.84978,6.375 -6.375,6.375 -3.52523,0 -6.375,-2.84978 -6.375,-6.375 0,-3.52522 2.84977,-6.40625 6.375,-6.40625 z m 27.78125,0 c 3.52522,0 6.375,2.88103 6.375,6.40625 0,3.52522 -2.84978,6.375 -6.375,6.375 -3.52523,0 -6.40625,-2.84978 -6.40625,-6.375 0,-3.52522 2.88102,-6.40625 6.40625,-6.40625 z m 27.75,0 c 3.52522,0 6.375,2.88103 6.375,6.40625 0,3.52522 -2.84978,6.375 -6.375,6.375 -3.52523,0 -6.375,-2.84978 -6.375,-6.375 0,-3.52522 2.84977,-6.40625 6.375,-6.40625 z m 27.78125,0 c 3.52522,0 6.375,2.88103 6.375,6.40625 0,3.52522 -2.84978,6.375 -6.375,6.375 -3.52523,0 -6.40625,-2.84978 -6.40625,-6.375 0,-3.52522 2.88102,-6.40625 6.40625,-6.40625 z m 27.75,0 c 3.52522,0 6.375,2.88103 6.375,6.40625 0,3.52522 -2.84978,6.375 -6.375,6.375 -3.52522,0 -6.375,-2.84978 -6.375,-6.375 0,-3.52522 2.84978,-6.40625 6.375,-6.40625 z m 27.78125,0 c 3.52522,0 6.375,2.88103 6.375,6.40625 0,3.52522 -2.84978,6.375 -6.375,6.375 -3.52523,0 -6.40625,-2.84978 -6.40625,-6.375 0,-3.52522 2.88102,-6.40625 6.40625,-6.40625 z m 27.75,0 c 3.52522,0 6.40625,2.88103 6.40625,6.40625 0,3.52522 -2.88103,6.375 -6.40625,6.375 -3.52523,0 -6.375,-2.84978 -6.375,-6.375 0,-3.52522 2.84977,-6.40625 6.375,-6.40625 z M 94.179398,459.56482 c 3.52522,0 6.375002,2.84978 6.375002,6.375 0,3.52522 -2.849782,6.375 -6.375002,6.375 -3.52523,0 -6.40625,-2.84978 -6.40625,-6.375 0,-3.52522 2.88102,-6.375 6.40625,-6.375 z m 27.750002,0 c 3.52522,0 6.375,2.84978 6.375,6.375 0,3.52522 -2.84978,6.375 -6.375,6.375 -3.52522,0 -6.375,-2.84978 -6.375,-6.375 0,-3.52522 2.84978,-6.375 6.375,-6.375 z m 27.78125,0 c 3.52522,0 6.375,2.84978 6.375,6.375 0,3.52522 -2.84978,6.375 -6.375,6.375 -3.52522,0 -6.40625,-2.84978 -6.40625,-6.375 0,-3.52522 2.88103,-6.375 6.40625,-6.375 z m 27.75,0 c 3.52522,0 6.375,2.84978 6.375,6.375 0,3.52522 -2.84978,6.375 -6.375,6.375 -3.52523,0 -6.375,-2.84978 -6.375,-6.375 0,-3.52522 2.84977,-6.375 6.375,-6.375 z m 27.78125,0 c 3.52522,0 6.375,2.84978 6.375,6.375 0,3.52522 -2.84978,6.375 -6.375,6.375 -3.52523,0 -6.40625,-2.84978 -6.40625,-6.375 0,-3.52522 2.88102,-6.375 6.40625,-6.375 z m 27.75,0 c 3.52522,0 6.375,2.84978 6.375,6.375 0,3.52522 -2.84978,6.375 -6.375,6.375 -3.52522,0 -6.375,-2.84978 -6.375,-6.375 0,-3.52522 2.84978,-6.375 6.375,-6.375 z m 27.78125,0 c 3.52522,0 6.375,2.84978 6.375,6.375 0,3.52522 -2.84978,6.375 -6.375,6.375 -3.52522,0 -6.40625,-2.84978 -6.40625,-6.375 0,-3.52522 2.88103,-6.375 6.40625,-6.375 z m 27.75,0 c 3.52522,0 6.40625,2.84978 6.40625,6.375 0,3.52522 -2.88103,6.375 -6.40625,6.375 -3.52523,0 -6.375,-2.84978 -6.375,-6.375 0,-3.52522 2.84977,-6.375 6.375,-6.375 z m -194.343752,22.75 c 3.52522,0 6.375002,2.88103 6.375002,6.40625 0,3.52522 -2.849782,6.375 -6.375002,6.375 -3.52523,0 -6.40625,-2.84978 -6.40625,-6.375 0,-3.52522 2.88102,-6.40625 6.40625,-6.40625 z m 27.750002,0 c 3.52522,0 6.375,2.88103 6.375,6.40625 0,3.52522 -2.84978,6.375 -6.375,6.375 -3.52522,0 -6.375,-2.84978 -6.375,-6.375 0,-3.52522 2.84978,-6.40625 6.375,-6.40625 z m 27.78125,0 c 3.52522,0 6.375,2.88103 6.375,6.40625 0,3.52522 -2.84978,6.375 -6.375,6.375 -3.52522,0 -6.40625,-2.84978 -6.40625,-6.375 0,-3.52522 2.88103,-6.40625 6.40625,-6.40625 z m 27.75,0 c 3.52522,0 6.375,2.88103 6.375,6.40625 0,3.52522 -2.84978,6.375 -6.375,6.375 -3.52522,0 -6.375,-2.84978 -6.375,-6.375 0,-3.52522 2.84978,-6.40625 6.375,-6.40625 z m 27.78125,0 c 3.52522,0 6.375,2.88103 6.375,6.40625 0,3.52522 -2.84978,6.375 -6.375,6.375 -3.52523,0 -6.40625,-2.84978 -6.40625,-6.375 0,-3.52522 2.88102,-6.40625 6.40625,-6.40625 z m 27.75,0 c 3.52522,0 6.375,2.88103 6.375,6.40625 0,3.52522 -2.84978,6.375 -6.375,6.375 -3.52522,0 -6.375,-2.84978 -6.375,-6.375 0,-3.52522 2.84978,-6.40625 6.375,-6.40625 z m 27.78125,0 c 3.52522,0 6.375,2.88103 6.375,6.40625 0,3.52522 -2.84978,6.375 -6.375,6.375 -3.52522,0 -6.40625,-2.84978 -6.40625,-6.375 0,-3.52522 2.88103,-6.40625 6.40625,-6.40625 z m 27.75,0 c 3.52522,0 6.40625,2.88103 6.40625,6.40625 0,3.52522 -2.88103,6.375 -6.40625,6.375 -3.52523,0 -6.375,-2.84978 -6.375,-6.375 0,-3.52522 2.84977,-6.40625 6.375,-6.40625 z"
           id="rect3790"
           inkscape:connector-curvature="0" />
        <text
           xml:space="preserve"
           style="font-size:40px;font-style:normal;font-variant:normal;font-weight:normal;font-stretch:normal;line-height:125%;letter-spacing:0px;word-spacing:0px;fill:#000000;fill-opacity:1;stroke:none;font-family:Al Tarikh;-inkscape-font-specification:Al Tarikh"
           x="108.96296"
           y="387.54736"
           id="text4233"
           sodipodi:linespacing="125%"><tspan
             sodipodi:role="line"
             id="tspan4235"
             x="108.96296"
             y="387.54736"
             style="font-size:250px;font-style:normal;font-variant:normal;font-weight:normal;font-stretch:normal;fill:#fd9a0a;fill-opacity:1;font-family:Sans;-inkscape-font-specification:Newspaper">k</tspan></text>
      </g>
      <text
         sodipodi:linespacing="125%"
         id="text4243"
         y="363.4733"
         x="320.37036"
         style="font-size:230px;font-style:normal;font-weight:normal;line-height:125%;letter-spacing:0px;word-spacing:0px;fill:#000000;fill-opacity:1;stroke:none;font-family:Sans"
         xml:space="preserve"><tspan
           style="fill:#fd9a0a;fill-opacity:1"
           y="363.4733"
           x="320.37036"
           id="tspan4245"
           sodipodi:role="line">indle</tspan></text>
    </g>
    <path
       style="fill:none;stroke:#d40000;stroke-width:10;stroke-linecap:butt;stroke-linejoin:miter;stroke-miterlimit:4;stroke-opacity:1;stroke-dasharray:none;marker-mid:none;marker-end:none"
       d="m 179.78136,1038.4015 356.10538,-10.372 107.17734,-63.96067 86.43335,70.87537 169.40935,-210.89738"
       id="path4275"
       inkscape:connector-curvature="0" />
    <path
       sodipodi:type="star"
       style="fill:#d40000;fill-opacity:1;fill-rule:evenodd;stroke:none"
       id="path3015"
       sodipodi:sides="3"
       sodipodi:cx="890.26343"
       sodipodi:cy="161.92529"
       sodipodi:r1="19.709835"
       sodipodi:r2="9.8549175"
       sodipodi:arg1="1.3045443"
       sodipodi:arg2="2.3517418"
       inkscape:flatsided="false"
       inkscape:rounded="0"
       inkscape:randomized="0"
       d="m 895.44943,180.94063 -12.12338,-12.0159 -12.12339,-12.0159 16.46777,-4.4912 16.46776,-4.49121 -4.34438,16.5071 z"
       transform="matrix(0.98699264,-0.16076547,0.16076547,0.98699264,-7.5373478,808.19603)"
       inkscape:transform-center-x="4.0877734"
       inkscape:transform-center-y="0.94344904" />
    <text
       xml:space="preserve"
       style="font-size:230px;font-style:normal;font-weight:normal;line-height:125%;letter-spacing:0px;word-spacing:0px;fill:#000000;fill-opacity:1;stroke:none;font-family:Sans"
       x="339.95007"
       y="1020.0128"
       id="text4271"
       sodipodi:linespacing="125%"><tspan
         sodipodi:role="line"
         id="tspan4273"
         x="339.95007"
         y="1020.0128"
         style="font-size:225px;font-style:normal;font-variant:normal;font-weight:500;font-stretch:normal;font-family:Apple LiGothic;-inkscape-font-specification:Apple LiGothic Medium">TREND</tspan></text>
  </g>
</svg>
